j,t
2,7.55E-07
14,7.59E-07
8,7.72E-07
10,7.77E-07
15,7.77E-07
11,7.94E-07
13,9.09E-07
12,9.13E-07
1,9.17E-07
4,9.34E-07
0,1.02E-06
6,1.05E-06
9,1.30E-06
5,1.30E-06
17,1.71E-06
199,2.51E-06
209,2.52E-06
207,2.53E-06
206,2.53E-06
245,2.56E-06
244,2.57E-06
243,2.58E-06
240,2.62E-06
208,2.62E-06
27,2.68E-06
205,2.68E-06
28,2.68E-06
19,2.71E-06
210,2.71E-06
20,2.73E-06
3,2.75E-06
34,3.03E-06
16,3.04E-06
39,3.19E-06
38,3.73E-06
150,3.96E-06
187,4.06E-06
56,4.08E-06
61,4.10E-06
163,4.11E-06
119,4.12E-06
249,4.17E-06
254,4.22E-06
178,4.22E-06
224,4.28E-06
236,4.31E-06
234,4.33E-06
44,4.34E-06
159,4.40E-06
69,4.43E-06
66,4.43E-06
155,4.45E-06
22,4.46E-06
110,4.49E-06
29,4.52E-06
83,4.57E-06
241,4.59E-06
168,4.63E-06
98,4.63E-06
115,4.67E-06
231,4.68E-06
158,4.72E-06
172,4.73E-06
221,4.86E-06
18,4.87E-06
46,4.95E-06
24,4.98E-06
105,5.02E-06
30,5.09E-06
189,5.11E-06
84,5.33E-06
93,5.34E-06
79,5.38E-06
75,5.38E-06
73,5.41E-06
176,5.41E-06
252,5.55E-06
59,5.56E-06
127,5.57E-06
154,5.67E-06
203,5.75E-06
51,5.76E-06
177,5.86E-06
97,5.86E-06
182,5.90E-06
142,5.91E-06
175,5.91E-06
40,6.04E-06
54,6.08E-06
62,6.23E-06
179,6.26E-06
106,6.42E-06
227,6.43E-06
197,6.52E-06
120,6.53E-06
21,6.55E-06
55,6.68E-06
128,6.98E-06
138,7.12E-06
180,7.42E-06
107,7.47E-06
137,7.49E-06
246,7.67E-06
58,7.73E-06
87,7.80E-06
23,8.26E-06
109,8.51E-06
228,8.59E-06
201,8.74E-06
52,8.79E-06
200,8.89E-06
239,9.07E-06
153,9.15E-06
223,9.16E-06
26,9.25E-06
65,9.33E-06
50,9.51E-06
202,9.53E-06
213,9.54E-06
74,9.64E-06
111,9.67E-06
215,1.00E-05
219,1.01E-05
171,1.02E-05
76,1.02E-05
43,1.03E-05
190,1.03E-05
85,1.04E-05
147,1.05E-05
191,1.06E-05
41,1.06E-05
214,1.06E-05
235,1.13E-05
167,1.14E-05
45,1.15E-05
238,1.16E-05
104,1.17E-05
230,1.18E-05
108,1.20E-05
125,1.21E-05
162,1.21E-05
225,1.23E-05
242,1.23E-05
25,1.23E-05
32,1.24E-05
204,1.24E-05
114,1.25E-05
198,1.25E-05
82,1.26E-05
181,1.26E-05
57,1.27E-05
212,1.27E-05
102,1.29E-05
211,1.31E-05
194,1.31E-05
196,1.32E-05
89,1.32E-05
37,1.33E-05
195,1.34E-05
49,1.34E-05
86,1.35E-05
31,1.39E-05
47,1.40E-05
161,1.40E-05
141,1.40E-05
35,1.41E-05
146,1.43E-05
36,1.43E-05
95,1.44E-05
42,1.46E-05
113,1.49E-05
174,1.51E-05
118,1.53E-05
218,1.57E-05
149,1.57E-05
186,1.59E-05
126,1.59E-05
145,1.60E-05
48,1.62E-05
123,1.62E-05
185,1.65E-05
129,1.66E-05
53,1.67E-05
67,1.67E-05
117,1.68E-05
77,1.68E-05
96,1.68E-05
188,1.69E-05
169,1.69E-05
152,1.69E-05
60,1.69E-05
92,1.69E-05
247,1.69E-05
99,1.69E-05
164,1.69E-05
184,1.69E-05
112,1.69E-05
132,1.70E-05
88,1.70E-05
156,1.70E-05
170,1.70E-05
91,1.70E-05
144,1.70E-05
64,1.70E-05
135,1.70E-05
124,1.70E-05
133,1.70E-05
90,1.70E-05
232,1.70E-05
143,1.70E-05
63,1.70E-05
165,1.71E-05
222,1.71E-05
121,1.71E-05
250,1.72E-05
193,1.72E-05
226,1.72E-05
131,1.73E-05
248,1.73E-05
68,1.73E-05
140,1.73E-05
157,1.73E-05
71,1.74E-05
148,1.74E-05
81,1.74E-05
217,1.74E-05
216,1.74E-05
160,1.77E-05
220,1.79E-05
7,3.38E-05
253,5.97E-05
251,6.03E-05
134,6.04E-05
192,6.14E-05
33,6.24E-05
183,6.25E-05
70,6.35E-05
101,6.38E-05
229,6.42E-05
139,6.45E-05
72,6.46E-05
122,6.55E-05
94,6.59E-05
173,6.60E-05
233,6.63E-05
80,6.64E-05
103,6.71E-05
166,6.91E-05
78,7.05E-05
100,7.42E-05
136,7.71E-05
151,8.20E-05
130,8.41E-05
116,8.58E-05
237,0.000132062
